<?xml version="1.0" encoding="utf-8"?>
<!-- Generator: Adobe Illustrator 16.0.0, SVG Export Plug-In . SVG Version: 6.00 Build 0)  -->
<!DOCTYPE svg PUBLIC "-//W3C//DTD SVG 1.1//EN" "http://www.w3.org/Graphics/SVG/1.1/DTD/svg11.dtd">
<svg version="1.1" id="Layer_1" xmlns="http://www.w3.org/2000/svg" xmlns:xlink="http://www.w3.org/1999/xlink" x="0px" y="0px"
	 width="494.281px" height="746.557px" viewBox="0 0 494.281 746.557" enable-background="new 0 0 494.281 746.557"
	 xml:space="preserve">
<g>
	<g>
		<path fill="#FFFFFF" d="M282.671,238.496c-2.683-1.542-5.35-3.114-8.051-4.623c-20.774-11.611-42.883-19.285-66.403-23.126
			c-19.061-3.114-38.088-3.605-57.263-1.325c-18.317,2.178-36.258,5.794-53.291,13.067c-30.448,13.002-51.887,35.152-64.11,65.684
			c-6.584,16.445-10.902,33.72-11.701,51.63c-0.208,4.652-0.508,9.307-0.443,13.956c0.014,0.909,1.372,2.306,2.36,2.583
			c1.739,0.489,3.092-0.266,2.955-2.531c-0.943-15.78,2.249-31.129,6.015-46.209c4.703-18.833,13.692-35.761,26.592-50.441
			c18.349-20.884,41.973-32.158,68.725-37.865c16.866-3.598,33.844-6.053,51.12-5.488c28.578,0.934,55.952,7.1,81.676,19.792
			c6.666,3.289,12.99,7.273,19.486,10.912c2.367,1.325,3.115,3.286,3.091,5.966c-0.104,11.716-0.046,23.433-0.046,35.059
			c6.396,1.925,6.252,1.926,6.27,8.829c0.006,2.926-1.113,3.598-3.789,3.543c-7.861-0.164-15.732-0.292-23.582-0.012
			c-2.123,0.075-4.684,1.141-6.195,2.618c-5.807,5.677-11.354,11.626-16.786,17.666c-1.2,1.333-2.144,3.445-2.16,5.209
			c-0.146,15.595,0.066,31.194-0.103,46.789c-0.062,5.669,3.984,8.852,6.996,12.494c1.202,1.454,4.503,1.504,6.872,1.594
			c5.46,0.209,10.935-0.062,16.394,0.14c1.084,0.04,2.123,1.325,3.184,2.038c-1.055,0.574-2.1,1.615-3.169,1.643
			c-5.992,0.163-11.995,0.163-17.992,0.042c-2.606-0.053-3.401,0.836-3.376,3.496c0.178,17.459,0.128,34.921,0.3,52.38
			c0.025,2.604-0.785,4.222-3.008,5.499c-12.679,7.292-25.285,14.709-37.967,21.993c-13.952,8.013-27.96,15.924-41.932,23.902
			c-0.388,0.222-0.634,0.693-1.313,1.469c1.246,0.139,1.968,0.289,2.689,0.289c33.462-0.009,66.923-0.032,100.384-0.053
			c0.932-0.001,1.989-0.282,2.769,0.062c1.021,0.452,1.823,1.397,2.719,2.129c-0.901,0.576-1.791,1.629-2.705,1.651
			c-6.129,0.146-12.264,0.129-18.395,0.044c-2.492-0.033-3.818,0.609-3.317,3.455c0.275,1.553-0.075,3.21,0.126,4.786
			c0.567,4.397-0.874,7.713-4.609,10.24c-3.41,2.312-4.607,5.483-4.506,9.878c0.365,15.721,0.113,31.453,0.286,47.182
			c0.017,1.601,1.312,3.19,2.027,4.78c0.05,0.108,0.219,0.156,0.302,0.259c6.688,8.133,15.688,8.884,25.287,8.177
			c1.75-0.128,3.604,1.114,5.408,1.724c-1.814,0.541-3.627,1.537-5.445,1.55c-16.92,0.125-33.839,0.089-50.761,0.09
			c-63.324,0.002-126.647,0-189.972,0.002c-6.524,0-13.055-0.127-19.575,0.095c-3.313,0.113-4.617-0.644-4.695-4.35
			c-0.762-35.636,9.529-67.54,30.651-96.331c14.076-19.188,31.199-35.128,50.585-48.353c25.706-17.532,52.379-33.647,78.605-50.423
			c11.767-7.526,23.771-14.735,35.07-22.912c7.979-5.773,14.683-13.123,18.468-22.626c7.503-18.836,0.116-43.637-16.562-54.595
			c-7.362-4.837-15.879-6.037-24.457-6.234c-18.155-0.418-34.369,4.161-45.939,19.354c-7.916,10.397-11.079,22.675-12.669,35.324
			c-0.896,7.112-0.88,14.354-0.994,21.542c-0.047,2.893-0.874,4.016-3.89,4.008c-32.26-0.087-64.521-0.084-96.781-0.058
			c-2.452,0.001-3.956-0.347-4.064-3.411c-0.933-26.116,2.046-51.603,11.663-76.097c10.446-26.602,27.214-48.034,51.498-63.399
			c20.625-13.049,43.256-20.221,67.284-23.719c30.841-4.492,61.388-2.689,91.666,3.978c17.651,3.887,34.254,10.612,49.643,20.324
			c5.646,3.562,2.564,8.431,3.749,12.632C283.267,238.071,282.968,238.284,282.671,238.496z M203.372,387.235
			c-2.132-1.891-2.113-5.336-5.577-3.184c-17.63,10.967-35.186,22.054-52.973,32.76c-21.805,13.124-43.607,26.256-63.143,42.672
			c-20.615,17.32-39.113,36.429-51.077,61.12c-8.856,18.282-14.1,37.288-14.521,57.64c-0.062,3.04,0.985,3.55,3.633,3.55
			c67.308-0.022,134.615,0.026,201.923-0.055c0.924-0.002,1.847-1.496,2.769-2.293c-0.854-0.854-1.625-1.832-2.602-2.513
			c-0.443-0.309-1.293-0.021-1.96-0.021c-64.646,0.002-129.289,0.003-193.934,0.003c-0.666,0-1.334,0.011-1.999,0.001
			c-2.154-0.029-3.048-1.013-2.927-3.267c0.922-17.145,5.662-33.333,12.794-48.787c6.41-13.896,15.66-26.029,25.862-37.311
			c15.901-17.577,34.297-32.359,54.233-45.041c23.464-14.923,47.391-29.115,71.096-43.661
			C190.948,395.181,196.838,391.367,203.372,387.235z"/>
		<path fill="#FFFFFF" d="M328.207,226.996c7.438-6.201,15.248-12.017,22.195-18.724c5.451-5.262,11.277-6.737,18.639-6.665
			c33.99,0.331,67.984,0.206,101.975,0.063c3.809-0.016,5.053,0.958,5.043,4.876c-0.068,33.716,0.066,67.433,0.111,101.149
			c0.084,61.051,0.156,122.102,0.221,183.153c0.035,32.924,0.02,65.847,0.117,98.769c0.01,2.767-0.729,3.632-3.604,3.619
			c-24.783-0.116-49.568-0.06-74.354-0.068c-12.377-0.005-24.756,0.004-37.131-0.134c-1.277-0.013-2.543-0.99-3.814-1.52
			c1.242-0.627,2.453-1.693,3.738-1.795c3.312-0.258,6.711-0.466,9.98-0.016c8.654,1.191,13.021-5.455,18.582-9.858
			c0.76-0.602,0.715-2.461,0.723-3.74c0.088-16.527,0.232-33.06,0.02-49.583c-0.027-2-1.613-4.633-3.289-5.835
			c-4.701-3.364-5.836-7.643-5.514-13.118c0.385-6.521,0.062-6.55-6.316-6.562c-4.799-0.009-9.604,0.128-14.393-0.064
			c-1.133-0.046-2.221-1.157-3.33-1.779c1.07-0.695,2.117-1.946,3.213-1.989c5.324-0.205,10.689-0.437,15.982,0.022
			c4.359,0.379,5.057-1.341,5.025-5.176c-0.178-23.593-0.152-47.185-0.162-70.775c-0.004-9.598-0.014-19.196,0.18-28.789
			c0.062-3.181-0.771-4.54-4.234-4.371c-5.586,0.271-11.197,0.157-16.791-0.011c-1.047-0.031-2.062-1.083-3.094-1.664
			c1.055-0.698,2.092-1.969,3.168-2.002c6.258-0.186,12.533,0.093,18.785-0.188c1.695-0.076,3.742-1.164,4.91-2.443
			c4.418-4.827,6.607-10.168,6.246-17.252c-0.684-13.42,0.049-26.91,0.018-40.37c-0.004-1.707-0.598-3.815-1.693-5.047
			c-5.932-6.664-12.02-13.196-18.277-19.553c-1.107-1.125-3.268-1.664-4.955-1.694c-7.727-0.14-15.461-0.136-23.186,0.097
			c-3.463,0.104-5.436-0.6-4.752-4.577c0.197-1.157,0.012-2.397-0.105-3.589c-0.225-2.32,0.596-3.607,3.105-3.395
			c2.561,0.217,3.008-1.091,2.988-3.425c-0.117-15.062-0.025-30.125-0.135-45.187c-0.018-2.676,0.871-4.449,3.01-6.052
			c5.223-3.913,10.125-8.261,15.457-12.001c2.123-1.487,5.043-2.563,7.605-2.581c27.326-0.181,54.654-0.119,81.98-0.106
			c5.014,0.002,6.494-1.354,6.49,6.102c-0.033,45.716-0.256,91.432-0.189,137.147c0.098,70.513,0.133,141.024,0.189,211.536
			c0.004,5.139-0.008,5.121-5.041,5.117c-15.729-0.011-31.459-0.016-47.188,0.002c-1.762,0.002-3.926-0.618-3.865,2.489
			c0.059,3.147,2.211,2.296,3.963,2.295c17.596-0.005,35.193-0.143,52.785,0.083c3.703,0.048,4.449-1.129,4.451-4.498
			c0.057-99.977,0.195-199.952,0.324-299.927c0.029-21.062,0.008-42.123,0.191-63.182c0.027-3.175-1.613-3.063-3.744-3.061
			c-21.328,0.023-42.656,0.027-63.982,0.03c-9.998,0.001-19.998-0.101-29.992,0.067c-1.822,0.03-3.91,0.751-5.385,1.826
			c-4.305,3.131-8.463,6.485-12.482,9.975c-4.289,3.725-8.84,6.251-14.793,5.26c-1.736-0.289-3.562-0.044-5.346-0.044
			C328.39,227.841,328.3,227.418,328.207,226.996z"/>
		<path fill="#FFFFFF" d="M314.14,289.577c-5.719,0-11.441,0.088-17.154-0.081c-1.039-0.031-2.047-1.113-3.068-1.709
			c1.033-0.729,2.056-2.076,3.1-2.093c11.699-0.188,23.404-0.209,35.104-0.128c0.83,0.006,1.652,1.183,2.479,1.815
			c-0.836,0.754-1.648,2.135-2.506,2.162c-5.979,0.19-11.967,0.101-17.951,0.101C314.14,289.622,314.14,289.6,314.14,289.577z"/>
	</g>
	<g>
		<path fill="#FFFFFF" d="M36.89,54.9H21.341l-3.408,11.076H6.716L23.187,16.42h12.78L51.87,65.976H39.942L36.89,54.9z
			 M29.506,25.934h-0.142l-5.893,20.589h11.146L29.506,25.934z"/>
		<path fill="#FFFFFF" d="M86.229,27.637c-1.773-0.994-4.755-2.839-10.081-2.839c-7.809,0-12.778,6.318-12.778,16.329
			c0,9.655,5.608,16.188,12.992,16.188c5.68,0,9.017-2.13,10.152-2.627l0.427,10.365c-1.988,0.639-6.106,1.775-12.425,1.775
			c-13.562,0-23.075-10.153-23.075-25.843c0-18.175,12.212-25.417,22.294-25.417c7.384,0,11.146,1.633,13.063,2.415L86.229,27.637z"
			/>
		<path fill="#FFFFFF" d="M90.773,16.42h28.612v8.662H101.99v11.076h16.542v8.662H101.99v12.496h18.245v8.661H90.773V16.42z"/>
		<path fill="#FFFFFF" d="M124.779,16.42h15.832c10.579,0,16.968,5.041,16.968,15.761c0,8.449-4.686,15.69-15.548,15.69h-5.608
			v18.104h-11.644V16.42z M139.688,39.21c3.62,0,6.248-2.485,6.248-7.1c0-4.899-2.272-7.029-6.888-7.029h-3.053V39.21H139.688z"/>
		<path fill="#FFFFFF" d="M168.654,25.365h-10.792V16.42h33.226v8.945h-10.79v40.61h-11.644V25.365z"/>
		<path fill="#FFFFFF" d="M216.08,54.9h-15.549l-3.407,11.076h-11.218l16.471-49.556h12.78l15.903,49.556h-11.928L216.08,54.9z
			 M208.696,25.934h-0.142l-5.893,20.589h11.146L208.696,25.934z"/>
		<path fill="#FFFFFF" d="M248.949,16.42h28.611v8.662h-17.395v11.076h16.541v8.662h-16.541v12.496h18.246v8.661h-29.463V16.42
			L248.949,16.42z"/>
		<path fill="#FFFFFF" d="M282.955,16.42h11.644v40.61h16.399v8.945h-28.043V16.42z"/>
		<path fill="#FFFFFF" d="M329.882,16.42h18.174c8.166,0,15.123,3.621,15.123,12.779c0,2.059-0.285,10.224-9.869,12.141v0.142
			c3.621,0.426,5.041,2.415,6.887,8.307l5.113,16.187h-12.213L349.263,52.7c-1.918-6.745-3.479-6.745-7.738-6.745v20.021h-11.643
			V16.42L329.882,16.42z M341.099,37.577h3.621c4.473,0,6.814-2.982,6.814-6.532c0-2.059-0.639-6.247-6.885-6.247h-3.553v12.779
			H341.099z"/>
		<path fill="#FFFFFF" d="M369.14,16.42h28.613v8.662h-17.396v11.076H396.9v8.662h-16.543v12.496h18.246v8.661H369.14V16.42
			L369.14,16.42z"/>
		<path fill="#FFFFFF" d="M410.386,25.365h-10.791V16.42h33.229v8.945h-10.791v40.61h-11.646V25.365z"/>
		<path fill="#FFFFFF" d="M454.123,15.568c14.27,0,21.086,11.076,21.086,25.63c0,14.555-6.816,25.63-21.086,25.63
			c-14.271,0-21.016-11.076-21.016-25.63C433.107,26.644,439.851,15.568,454.123,15.568z M454.123,58.45
			c6.744,0,9.158-7.738,9.158-17.252c0-9.514-2.414-17.252-9.158-17.252c-6.746,0-9.088,7.738-9.088,17.252
			C445.035,50.712,447.376,58.45,454.123,58.45z"/>
	</g>
	<g>
		<path fill="#FFFFFF" d="M480.937,90.189c0-3.776,3.082-6.576,6.699-6.576c3.578,0,6.645,2.8,6.645,6.576
			c0,3.808-3.066,6.592-6.645,6.592C484.019,96.781,480.937,93.997,480.937,90.189 M487.638,95.682c2.99,0,5.312-2.342,5.312-5.493
			c0-3.131-2.322-5.478-5.312-5.478c-3.016,0-5.379,2.346-5.379,5.478C482.259,93.34,484.623,95.682,487.638,95.682 M486.259,93.997
			h-1.184v-7.584h2.9c1.803,0,2.678,0.645,2.678,2.14c0,1.354-0.844,1.958-1.959,2.106l2.174,3.337h-1.281l-2.014-3.304h-1.314
			V93.997L486.259,93.997z M487.638,89.726c0.951,0,1.834-0.065,1.834-1.238c0-0.942-0.85-1.125-1.645-1.125h-1.568v2.363H487.638z"
			/>
		<polyline fill="#FFFFFF" points="196.341,97.896 144.66,97.946 144.66,117.641 158.006,117.624 158.101,182.771 182.232,182.73 
			182.16,117.607 196.399,117.583 		"/>
		<polygon fill="#FFFFFF" points="81.281,98.012 81.396,182.73 57.455,182.837 57.514,98.062 		"/>
		<polyline fill="#FFFFFF" points="351.476,97.723 351.677,182.531 373.734,182.482 373.734,144.531 392.353,182.499 
			418.97,182.441 418.765,97.624 395.279,97.665 395.328,139.913 374.443,97.689 		"/>
		<polyline fill="#FFFFFF" points="7.88,91.411 7.946,182.871 54.53,182.804 54.448,163.49 31.854,163.523 31.797,91.378 		"/>
		<polyline fill="#FFFFFF" points="425.638,97.624 425.703,182.466 476.013,182.408 476.013,162.986 450.298,163.052 
			450.273,149.587 471.511,149.562 471.478,130.041 450.265,130.065 450.24,117.326 475.957,117.293 475.923,97.566 		"/>
		<polyline fill="#FFFFFF" points="199.662,97.88 199.762,182.705 250.105,182.672 250.048,163.233 224.331,163.3 224.298,149.834 
			245.57,149.781 245.546,130.305 224.29,130.33 224.264,117.574 249.981,117.529 249.973,97.822 		"/>
		<path fill="#FFFFFF" d="M286.076,118.203c5.012-0.009,9.086,4.205,9.103,9.211c-0.007,5.039-3.972,9.235-8.987,9.244v0.025
			l-9.451-0.025l-0.059-18.464l9.354,0.025 M304.968,147.406c8.178-4.479,13.654-13.334,13.639-23.305
			c-0.016-14.341-11.631-26.353-25.973-26.32l-39.225,0.05l0.024,84.809l23.346-0.008l-0.04-42.851c0,0,19.313,41.731,19.496,42.826
			l49.047-0.038l-0.107-84.879l-23.463,0.025l0.141,83.281L304.968,147.406z"/>
		<path fill="#FFFFFF" d="M85.181,155.601l21.553-0.042l-0.017,3.495c0,5.65,5.32,8.418,8.995,8.385c5.513,0,8.808-3.61,8.808-8.406
			c-0.025-6.828-6.097-7.72-12.599-9.909c-8.716-2.95-13.407-5.676-18.563-10.137c-5.031-4.329-8.087-10.764-8.095-19.166
			c-0.025-14.188,13.912-24.643,30.335-24.66c15.911-0.017,30.261,11,30.128,24.577l0.018,3.495l-21.547,0.016l0.091-3.453
			c-0.188-4.403-3.956-7.328-8.798-7.319c-5.435,0-7.689,3.461-7.689,7.419c0,5.874,4.271,7.137,9.491,8.632
			c6.18,1.784,14.218,5.172,20.116,8.997c7.443,4.833,10.565,12.26,10.582,20.703c0.01,15.481-14.862,27.312-33.127,27.336
			c-17.546,0.017-29.749-11.342-29.757-26.46"/>
	</g>
	<line fill="#FFFFFF" stroke="#FFFFFF" stroke-miterlimit="10" x1="6.665" y1="75.998" x2="475.425" y2="75.998"/>
	<line fill="#FFFFFF" stroke="#FFFFFF" stroke-miterlimit="10" x1="6.665" y1="0" x2="475.425" y2="0"/>
	<g>
		<path fill="#FFFFFF" d="M0,609.309h75.971c38.657,0,65.915,13.147,65.915,67.85c0,51.035-29.38,67.079-68.043,67.079H0V609.309z
			 M51.807,710.601h12.951c18.75,0,23.006-12.37,23.006-34.793c0-23.199-4.642-35.186-23.198-35.186H51.807V710.601z"/>
		<path fill="#FFFFFF" d="M201.805,649.312v94.925h-51.807v-94.925H201.805z M218.812,608.911l-38.08,30.156h-26.869l19.139-30.156
			H218.812z"/>
		<path fill="#FFFFFF" d="M248.387,609.309h71.327l48.135,134.929h-54.32l-8.888-29.188h-43.69l-8.309,29.188h-51.615
			L248.387,609.309z M268.105,682.573h29.959l-14.688-44.268h-0.387L268.105,682.573z"/>
		<path fill="#FFFFFF" d="M476.085,646.23c-11.594-4.06-25.322-6.765-40.01-6.765c-8.121,0-22.234,0.192-22.234,8.893
			c0,17.592,70.943,0.966,70.943,52.963c0,36.149-35.758,45.235-65.723,45.235c-19.908,0-36.342-1.935-55.672-6.379v-34.992
			c13.916,5.802,30.93,8.896,46.395,8.896c12.178,0,23.193-2.514,23.193-9.28c0-18.17-70.938-1.736-70.938-54.123
			c0-37.112,38.66-43.684,69.393-43.684c14.5,0,30.543,1.736,44.652,4.636V646.23L476.085,646.23z"/>
	</g>
</g>
</svg>
